@SET COORD_FILE                     scol00.cp2k
@SET LENGTHS                        18.446058 18.773196 6.514937
@SET ANGLES                         90.000000 90.372697 90.000000
@SET MULTICELL                      1 1 2
@SET BASIS_FILE                     /home/james/quickstep/data/BASIS_MOLOPT
@SET PSEUDO_FILE                    /home/james/quickstep/data/GTH_POTENTIALS
@SET RESTART                        FALSE
@IF ( ${RESTART} == TRUE )
    @SET PRINT_RESTART              ON
    @SET RESTART_FILE               scol00-1.restart
    &EXT_RESTART
	    RESTART_FILE_NAME           ${RESTART_FILE}
    &END EXT_RESTART
    @SET SCF_GUESS                  RESTART
@ENDIF
@IF ( ${RESTART} == FALSE )
    @SET PRINT_RESTART              ON
    @SET SCF_GUESS                  ATOMIC
@ENDIF
@SET CONVERGE_TO                    1.0E-006
@SET SCF_INNER_CONVERGENCE          1.0E-003
@SET SCF_OUTER_CONVERGENCE          1.0E-004
@SET SCF_MINIMISER                  CG
@SET SCF_PRECONDITIONER             FULL_SINGLE_INVERSE
@SET XC                             PBE
@SET SCF_INNER_MAX                  1000
@SET SCF_OUTER_MAX                  5000
@SET CUTOFF                         750
@SET REL_CUTOFF                     90
@SET EXTRAPOLATION                  ASPC

&GLOBAL
	PROJECT                         scol00
	RUN_TYPE                        CELL_OPT
	PRINT_LEVEL                     LOW
	TRACE                           OFF
	&TIMINGS
		THRESHOLD                   0.02
	&END TIMINGS
    WALLTIME                        1209600
&END GLOBAL
&FORCE_EVAL
	METHOD                          QUICKSTEP
    STRESS_TENSOR                   ANALYTICAL
	&SUBSYS
		&CELL
			ABC                     ${LENGTHS}
			ALPHA_BETA_GAMMA        ${ANGLES}
            MULTIPLE_UNIT_CELL      ${MULTICELL}
		&END CELL
        &COORD
Si 0.000000 0.082602 0.000000
Si 18.424869 9.469198 3.257400
Si 4.600920 4.704948 1.628700
Si 4.579731 14.091546 4.886099
Si 9.201840 0.082600 3.257400
Si 9.180651 9.469198 6.514799
Si 13.802760 4.704948 4.886099
Si 13.823949 14.091546 1.628700
Si 2.811156 3.942640 4.053817
Si 2.832345 13.329238 0.796418
Si 7.412076 0.844908 5.682517
Si 7.433265 10.231506 2.425118
Si 12.055374 3.942640 0.796418
Si 12.034185 13.329238 4.053817
Si 16.656294 0.844908 2.425118
Si 16.635105 10.231506 5.682517
Si 1.585983 8.612679 5.695175
Si 1.607172 17.999277 2.437775
Si 6.208092 5.561469 4.066475
Si 6.229281 14.948067 0.809076
Si 10.830201 8.612679 2.437775
Si 10.809012 17.999277 5.695175
Si 15.452310 5.561469 0.809076
Si 15.431121 14.948067 4.066475
Al 0.663328 1.728899 4.014177
Al 0.684517 11.115497 0.756777
Al 5.264248 3.058651 5.642877
Al 5.285437 12.445249 2.385477
Al 9.907546 1.728899 0.756777
Al 9.886357 11.115497 4.014177
Al 14.508466 3.058651 2.385477
Al 14.487277 12.445249 5.642877
Al 3.747352 6.397898 5.662343
Al 3.768541 15.784496 2.404943
Al 8.369461 7.776248 4.033643
Al 8.390650 17.162846 0.776244
Al 12.991570 6.397898 2.404943
Al 12.970381 15.784496 5.662343
Al 17.613679 7.776248 0.776244
Al 17.592490 17.162846 4.033643
Ca 4.267365 0.323853 3.993842
Ca 4.288554 9.710451 0.736443
Ca 8.868285 4.463697 5.622542
Ca 8.889474 13.850295 2.365142
Ca 13.511583 0.323853 0.736443
Ca 13.490394 9.710451 3.993842
Ca 18.112503 4.463697 2.365142
Ca 18.091314 13.850295 5.622542
O2 0.285021 1.396773 5.664947
O2 0.306210 10.783371 2.407547
O2 4.928319 3.390775 0.778847
O2 4.907130 12.777373 4.036247
O2 9.529239 1.396773 2.407547
O2 9.508050 10.783371 5.664947
O2 14.130159 3.390775 4.036247
O2 14.151348 12.777373 0.778847
O2 4.299600 5.993790 0.747307
O2 4.278411 15.380388 4.004707
O2 8.879331 8.180356 5.633407
O2 8.900520 17.566954 2.376007
O2 13.501440 5.993790 4.004707
O2 13.522629 15.380388 0.747307
O2 18.123549 8.180356 2.376007
O2 18.102360 17.566954 5.633407
O2 1.332909 3.326565 3.837559
O2 1.354098 12.713163 0.580160
O2 5.933829 1.460983 5.466259
O2 5.955018 10.847581 2.208860
O2 10.577127 3.326565 0.580160
O2 10.555938 12.713163 3.837559
O2 15.178047 1.460983 2.208860
O2 15.156858 10.847581 5.466259
O2 3.071909 7.998403 5.742032
O2 3.093098 17.385001 2.484632
O2 7.694018 6.175743 4.113332
O2 7.715207 15.562341 0.855933
O2 12.316127 7.998403 2.484632
O2 12.294938 17.385001 5.742032
O2 16.938236 6.175743 0.855933
O2 16.917047 15.562341 4.113332
O2 1.764894 0.521563 3.412936
O2 1.786083 9.908161 0.155536
O2 6.365814 4.265985 5.041636
O2 6.387003 13.652583 1.784236
O2 11.009112 0.521563 0.155536
O2 10.987923 9.908161 3.412936
O2 15.610032 4.265985 1.784236
O2 15.588843 13.652583 5.041636
O2 2.697207 5.148215 5.086097
O2 2.718396 14.534813 1.828698
O2 7.319316 9.025929 3.457397
O2 7.340505 18.412527 0.199998
O2 11.941425 5.148215 1.828698
O2 11.920236 14.534813 5.086097
O2 16.563534 9.025929 0.199998
O2 16.542345 18.412527 3.457397
O2 3.863427 2.819710 4.594413
O2 3.884616 12.206308 1.337013
O2 8.464347 1.967840 6.223113
O2 8.485536 11.354438 2.965713
O2 13.107645 2.819710 1.337013
O2 13.086456 12.206308 4.594413
O2 17.708565 1.967840 2.965713
O2 17.687376 11.354438 6.223113
O2 0.447710 7.620891 6.181325
O2 0.468899 17.007489 2.923926
O2 5.069819 6.553253 4.552626
O2 5.091008 15.939851 1.295226
O2 9.691928 7.620891 2.923926
O2 9.670739 17.007489 6.181325
O2 14.314037 6.553253 1.295226
O2 14.292848 15.939851 4.552626
O2 3.304700 4.466554 2.587635
O2 3.283511 13.853152 5.845034
O2 7.905620 0.320995 4.216334
O2 7.926809 9.707593 0.958935
O2 12.506540 4.466554 5.845034
O2 12.527729 13.853152 2.587635
O2 17.149838 0.320995 0.958935
O2 17.128649 9.707593 4.216334
O2 1.309884 9.106639 4.155770
O2 1.331073 18.493237 0.898371
O2 5.931993 5.067507 2.527070
O2 5.910804 14.454105 5.784470
O2 10.554102 9.106639 0.898371
O2 10.532913 18.493237 4.155770
O2 15.133833 5.067507 5.784470
O2 15.155022 14.454105 2.527070
O1 0.535462 13.296966 3.617383
O1 0.556651 3.910368 0.359984
O1 5.136382 10.263777 5.246083
O1 5.157571 0.877179 1.988683
O1 9.779680 13.296966 0.359983
O1 9.758491 3.910368 3.617383
O1 14.359411 0.877179 5.246082
O1 14.380600 10.263777 1.988683
O1 3.746557 8.690020 2.746130
O1 3.725368 18.076618 6.003529
O1 8.347477 14.870724 4.374830
O1 8.368666 5.484126 1.117430
O1 12.948397 8.690020 6.003529
O1 12.969586 18.076618 2.746130
O1 17.570506 5.484126 4.374830
O1 17.591695 14.870724 1.117430
O1 1.278333 6.136851 2.331931
O1 1.257144 15.523449 5.589331
O1 5.879253 17.423893 3.960631
O1 5.900442 8.037295 0.703232
O1 10.480173 6.136851 5.589331
O1 10.501362 15.523449 2.331931
O1 15.123471 17.423893 0.703232
O1 15.102282 8.037295 3.960631
H 0.535795 3.016218 6.480884
H 0.556984 12.402816 3.223485
H 1.164443 7.036761 2.696133
H 1.143254 16.423359 5.953533
H 1.045569 4.457949 6.260924
H 1.066758 13.844547 3.003524
H 2.220181 6.099349 2.074527
H 2.198992 15.485947 5.331927
H 3.052018 18.309397 0.111991
H 3.030829 8.922799 3.369390
H 4.319095 8.089980 3.268733
H 4.340284 17.476578 0.011333
H 5.157904 11.157928 4.852185
H 5.179093 1.771330 1.594785
H 5.765363 16.523983 4.324833
H 5.786552 7.137385 1.067434
H 5.688867 0.329601 1.374825
H 5.667678 9.716199 4.632224
H 6.821101 17.461396 3.703226
H 6.842290 8.074798 0.445827
H 7.631749 14.637945 4.998090
H 7.652938 5.251347 1.740690
H 8.941204 6.084168 1.640033
H 8.920015 15.470766 4.897433
H 9.780013 3.016218 3.223485
H 9.758824 12.402814 6.480884
H 10.366283 7.036761 5.953533
H 10.387472 16.423359 2.696133
H 10.268598 13.844545 6.260924
H 10.289787 4.457949 3.003524
H 11.422021 6.099349 5.331927
H 11.443210 15.485947 2.074527
H 12.253858 18.309397 3.369390
H 12.275047 8.922799 0.111991
H 13.542124 17.476578 3.268733
H 13.563313 8.089980 0.011333
H 14.402122 11.157928 1.594785
H 14.380933 1.771330 4.852185
H 15.009581 16.523983 1.067434
H 14.988392 7.137385 4.324833
H 14.911896 9.716199 1.374825
H 14.890707 0.329601 4.632224
H 16.065319 17.461396 0.445827
H 16.044130 8.074798 3.703226
H 16.854778 5.251347 4.998090
H 16.875967 14.637945 1.740690
H 18.143044 6.084168 4.897433
H 18.164233 15.470766 1.640033
        &END COORD
		&TOPOLOGY
			COORD_FILE_FORMAT       CP2K
			COORD_FILE_NAME         ${COORD_FILE}
            MULTIPLE_UNIT_CELL      ${MULTICELL}
		&END TOPOLOGY
# Switched to lower basis sets with MOLOPT using Google Group's guidance (Cholesky errors strike again)
		&KIND H
			ELEMENT H
			BASIS_SET DZVP-MOLOPT-SR-GTH-q1
			POTENTIAL GTH-PBE-q1
		&END KIND
		&KIND O1
			ELEMENT O
			BASIS_SET DZVP-MOLOPT-SR-GTH-q6
			POTENTIAL GTH-PBE-q6
		&END KIND
		&KIND O2
			ELEMENT O
			BASIS_SET DZVP-MOLOPT-SR-GTH-q6
			POTENTIAL GTH-PBE-q6
		&END KIND
		&KIND Si
			ELEMENT Si
			BASIS_SET DZVP-MOLOPT-SR-GTH-q4
			POTENTIAL GTH-PBE-q4
		&END KIND
		&KIND Al
			ELEMENT Al
			BASIS_SET DZVP-MOLOPT-SR-GTH-q3
			POTENTIAL GTH-PBE-q3
		&END KIND
		&KIND Na
			ELEMENT Na
			BASIS_SET DZVP-MOLOPT-SR-GTH-q9
			POTENTIAL GTH-PBE-q9
		&END KIND
		&KIND Ca
			ELEMENT Ca
			BASIS_SET DZVP-MOLOPT-SR-GTH-q10
			POTENTIAL GTH-PBE-q10
		&END KIND
		&KIND K
			ELEMENT K
			BASIS_SET DZVP-MOLOPT-SR-GTH-q9
			POTENTIAL GTH-PBE-q9
		&END KIND
		&KIND Mg
			ELEMENT Mg
			BASIS_SET DZVP-MOLOPT-SR-GTH-q10
			POTENTIAL GTH-PBE-q2
		&END KIND
        &PRINT
            &ATOMIC_COORDINATES MEDIUM
#                ADD_LAST            SYMBOLIC
                &EACH
                    CELL_OPT         1
                &END EACH
                FILENAME            coords
            &END ATOMIC_COORDINATES
            &CELL MEDIUM
#                ADD_LAST            SYMBOLIC
                &EACH
                    CELL_OPT         1
                &END EACH
                FILENAME            cellparam
            &END CELL
        &END PRINT
	&END SUBSYS
	&DFT
		BASIS_SET_FILE_NAME         ${BASIS_FILE}   
		POTENTIAL_FILE_NAME         ${PSEUDO_FILE}
		&QS
			EPS_DEFAULT             ${CONVERGE_TO}
			EXTRAPOLATION           ${EXTRAPOLATION}
			EXTRAPOLATION_ORDER     3
			MAP_CONSISTENT          TRUE
		&END QS
		&MGRID
			CUTOFF                  ${CUTOFF}
			REL_CUTOFF              ${REL_CUTOFF}
		&END MGRID
		&SCF
			SCF_GUESS               ${SCF_GUESS}
            EPS_SCF                 ${SCF_INNER_CONVERGENCE}
			MAX_SCF                 ${SCF_INNER_MAX}
			&OUTER_SCF
                EPS_SCF             ${SCF_OUTER_CONVERGENCE}
				MAX_SCF             ${SCF_OUTER_MAX}
			&END OUTER_SCF
			&OT                     ON
				MINIMIZER           ${SCF_MINIMISER}
# Only way I could get it working without Cholesky decomposition errors was by having preconditioner set to NONE
				PRECONDITIONER      ${SCF_PRECONDITIONER}
				ENERGY_GAP          0.001
			&END OT
			&PRINT
				&RESTART            ${PRINT_RESTART}
				&END RESTART
			&END PRINT
		&END SCF
        &XC
            &XC_FUNCTIONAL          ${XC}
            &END XC_FUNCTIONAL
        &END XC
	&END DFT
&END FORCE_EVAL
# Most things in MOTION section are the defaults
&MOTION
    &PRINT
#        &CELL HIGH
#            ADD_LAST                SYMBOLIC
#            &EACH
#                CELL_OPT            1
#                GEO_OPT             1
#                QS_SCF              1
#            &END EACH
#            FILENAME                cell
#        &END CELL
#        &STRUCTURE_DATA HIGH
#            ADD_LAST                SYMBOLIC
#            &EACH
#                CELL_OPT            1
#                GEO_OPT             1
#                QS_SCF              1
#            &END EACH
#            FILENAME                structure
#            POSITION
#        &END STRUCTURE_DATA
        &TRAJECTORY LOW
            ADD_LAST                SYMBOLIC
            FILENAME                trajectory
            FORMAT                  PDB
        &END TRAJECTORY
    &END PRINT
    &CELL_OPT
        TYPE        DIRECT_CELL_OPT
        MAX_DR      1.0E-02
        MAX_FORCE   1.0E-03
        RMS_DR      1.0E-02
        RMS_FORCE   1.0E-03
        MAX_ITER    10000
        OPTIMIZER   CG
    &END CELL_OPT
	&GEO_OPT
		TYPE        MINIMIZATION
		MAX_DR      1.0E-02
		MAX_FORCE   1.0E-03
		RMS_DR      1.0E-02
		RMS_FORCE   1.0E-03
		MAX_ITER    10000
		OPTIMIZER   CG
		&CG
			MAX_STEEP_STEPS 0
			RESTART_LIMIT   9.0E-01
		&END CG
	&END GEO_OPT
&END MOTION
